/home/e20180003114/eclipse-workspace/projetJunitForSonarcloud/tp-sonarcloud/src/main/java/projetJunit/projetJunit/App.java
/home/e20180003114/eclipse-workspace/projetJunitForSonarcloud/tp-sonarcloud/src/main/java/poste/ColisExpress.java
/home/e20180003114/eclipse-workspace/projetJunitForSonarcloud/tp-sonarcloud/src/main/java/poste/Recommandation.java
/home/e20180003114/eclipse-workspace/projetJunitForSonarcloud/tp-sonarcloud/src/main/java/poste/SacPostal.java
/home/e20180003114/eclipse-workspace/projetJunitForSonarcloud/tp-sonarcloud/src/main/java/poste/Colis.java
/home/e20180003114/eclipse-workspace/projetJunitForSonarcloud/tp-sonarcloud/src/main/java/poste/ObjetPostal.java
/home/e20180003114/eclipse-workspace/projetJunitForSonarcloud/tp-sonarcloud/src/main/java/poste/MainPoste.java
/home/e20180003114/eclipse-workspace/projetJunitForSonarcloud/tp-sonarcloud/src/main/java/poste/ColisExpressInvalide.java
/home/e20180003114/eclipse-workspace/projetJunitForSonarcloud/tp-sonarcloud/src/main/java/poste/Lettre.java
/home/e20180003114/eclipse-workspace/projetJunitForSonarcloud/tp-sonarcloud/src/main/java/poste/Courriel.java
